%YAML 1.1
%TAG !u! tag:unity3d.com,2011:
--- !u!21 &2100000
Material:
  serializedVersion: 6
  m_ObjectHideFlags: 0
  m_PrefabParentObject: {fileID: 0}
  m_PrefabInternal: {fileID: 0}
  m_Name: Trail
  m_Shader: {fileID: 4800000, guid: 9ced8be6686666e4a9d4fd03e4ba2439, type: 3}
  m_ShaderKeywords: 
  m_LightmapFlags: 5
  m_CustomRenderQueue: -1
  stringTagMap: {}
  m_SavedProperties:
    serializedVersion: 2
    m_TexEnvs:
      data:
        first:
          name: _MainTex
        second:
          m_Texture: {fileID: 2800000, guid: 9e1035f13912b384abce4ed4b2d03d17, type: 3}
          m_Scale: {x: 1, y: 1}
          m_Offset: {x: 0, y: 0}
    m_Floats:
      data:
        first:
          name: _InvFade
        second: 0.58
      data:
        first:
          name: _TintStrength
        second: 0.03
      data:
        first:
          name: _CoreStrength
        second: 2
      data:
        first:
          name: _CutOutLightCore
        second: 0.18
      data:
        first:
          name: _ColorStrR
        second: 1.435
      data:
        first:
          name: _ColorStrG
        second: 1.435
      data:
        first:
          name: _ColorStrB
        second: 2.575
      data:
        first:
          name: _Chanel
        second: 0
    m_Colors:
      data:
        first:
          name: _Color
        second: {r: 1, g: 1, b: 1, a: 1}
      data:
        first:
          name: _TintColor
        second: {r: 0, g: 1, b: 0.37931037, a: 1}
      data:
        first:
          name: _CoreColor
        second: {r: 0, g: 1, b: 0.17241359, a: 1}
      data:
        first:
          name: _TintColorR
        second: {r: 1, g: 0, b: 0, a: 1}
      data:
        first:
          name: _TintColorG
        second: {r: 1, g: 1, b: 1, a: 1}
      data:
        first:
          name: _TintColorB
        second: {r: 0.53062886, g: 0.3455882, b: 1, a: 1}
