%YAML 1.1
%TAG !u! tag:unity3d.com,2011:
--- !u!21 &2100000
Material:
  serializedVersion: 6
  m_ObjectHideFlags: 0
  m_PrefabParentObject: {fileID: 0}
  m_PrefabInternal: {fileID: 0}
  m_Name: Line5
  m_Shader: {fileID: 4800000, guid: 49895ab10e5998b4db8eee81071536b6, type: 3}
  m_ShaderKeywords: 
  m_LightmapFlags: 5
  m_CustomRenderQueue: -1
  stringTagMap: {}
  m_SavedProperties:
    serializedVersion: 2
    m_TexEnvs:
      data:
        first:
          name: _MainTex
        second:
          m_Texture: {fileID: 2800000, guid: 023cdc8a088c2264d86f8d57fe83b4d5, type: 3}
          m_Scale: {x: 0.125, y: 0.0625}
          m_Offset: {x: 0.75, y: 0.4375}
    m_Floats:
      data:
        first:
          name: _InvFade
        second: 7
      data:
        first:
          name: _ColorStrength
        second: 0.5
      data:
        first:
          name: _TintStrength
        second: 2.232143
      data:
        first:
          name: _CoreStrength
        second: 4.5714283
      data:
        first:
          name: _CutOutLightCore
        second: 0
    m_Colors:
      data:
        first:
          name: _Color
        second: {r: 1, g: 1, b: 1, a: 1}
      data:
        first:
          name: _TintColor
        second: {r: 0.45588237, g: 0.6968073, b: 1, a: 0.5019608}
      data:
        first:
          name: _CoreColor
        second: {r: 0.5039553, g: 0.46323532, b: 1, a: 1}
