%YAML 1.1
%TAG !u! tag:unity3d.com,2011:
--- !u!21 &2100000
Material:
  serializedVersion: 6
  m_ObjectHideFlags: 0
  m_PrefabParentObject: {fileID: 0}
  m_PrefabInternal: {fileID: 0}
  m_Name: Print
  m_Shader: {fileID: 4800000, guid: 49895ab10e5998b4db8eee81071536b6, type: 3}
  m_ShaderKeywords: 
  m_LightmapFlags: 5
  m_CustomRenderQueue: -1
  stringTagMap: {}
  m_SavedProperties:
    serializedVersion: 2
    m_TexEnvs:
      data:
        first:
          name: _MainTex
        second:
          m_Texture: {fileID: 2800000, guid: c07e02d8354d4a3459c8085a8c3d41b3, type: 3}
          m_Scale: {x: 1, y: 1}
          m_Offset: {x: 0, y: 0}
      data:
        first:
          name: _BumpMap
        second:
          m_Texture: {fileID: 2800000, guid: 33708ccd803b6f34285d93bfaf469506, type: 3}
          m_Scale: {x: 1, y: 1}
          m_Offset: {x: 0, y: 0}
      data:
        first:
          name: _Cube
        second:
          m_Texture: {fileID: 8900000, guid: e2fc12be2e3e72f44a8a78d46d5e2559, type: 2}
          m_Scale: {x: 1, y: 1}
          m_Offset: {x: 0, y: 0}
      data:
        first:
          name: _CutOut
        second:
          m_Texture: {fileID: 2800000, guid: c07e02d8354d4a3459c8085a8c3d41b3, type: 3}
          m_Scale: {x: 1, y: 1}
          m_Offset: {x: 0, y: 0}
    m_Floats:
      data:
        first:
          name: _Cutoff
        second: 1
      data:
        first:
          name: _Shininess
        second: 0.341283
      data:
        first:
          name: _InvFade
        second: 3
      data:
        first:
          name: _ColorStrength
        second: 0.35
      data:
        first:
          name: _BumpAmt
        second: 50
      data:
        first:
          name: _ReflectionStrength
        second: 1
      data:
        first:
          name: _Opacity
        second: 1
      data:
        first:
          name: _FPOW
        second: 1.86
      data:
        first:
          name: _R0
        second: 0.74
      data:
        first:
          name: _LightStr
        second: 0.21428572
    m_Colors:
      data:
        first:
          name: _Color
        second: {r: 0.058823526, g: 0.058823526, b: 0.058823526, a: 1}
      data:
        first:
          name: _SpecColor
        second: {r: 0.78676474, g: 0.84117645, b: 1, a: 1}
      data:
        first:
          name: _ReflectColor
        second: {r: 0.46323532, g: 0.5557811, b: 1, a: 0.5019608}
      data:
        first:
          name: _TintColor
        second: {r: 0.74264705, g: 0.7976673, b: 1, a: 1}
      data:
        first:
          name: _TintColorB
        second: {r: 0.89705884, g: 0.9190669, b: 1, a: 0.7058824}
