%YAML 1.1
%TAG !u! tag:unity3d.com,2011:
--- !u!21 &2100000
Material:
  serializedVersion: 6
  m_ObjectHideFlags: 0
  m_PrefabParentObject: {fileID: 0}
  m_PrefabInternal: {fileID: 0}
  m_Name: ParticlesHeal2
  m_Shader: {fileID: 4800000, guid: 9ced8be6686666e4a9d4fd03e4ba2439, type: 3}
  m_ShaderKeywords: 
  m_LightmapFlags: 5
  m_CustomRenderQueue: -1
  stringTagMap: {}
  m_SavedProperties:
    serializedVersion: 2
    m_TexEnvs:
      data:
        first:
          name: _MainTex
        second:
          m_Texture: {fileID: 2800000, guid: 4693e613236a73745a553c94048b3cb3, type: 3}
          m_Scale: {x: 1, y: 1}
          m_Offset: {x: 0, y: 0}
      data:
        first:
          name: _BumpMap
        second:
          m_Texture: {fileID: 0}
          m_Scale: {x: 1, y: 1}
          m_Offset: {x: 0, y: 0}
    m_Floats:
      data:
        first:
          name: _InvFade
        second: 1.8253572
      data:
        first:
          name: _ColorStrength
        second: 1
      data:
        first:
          name: _BumpAmt
        second: 10
      data:
        first:
          name: _TintStrength
        second: 5
      data:
        first:
          name: _CoreStrength
        second: 2.2857144
      data:
        first:
          name: _CutOutLightCore
        second: 0
    m_Colors:
      data:
        first:
          name: _Color
        second: {r: 1, g: 1, b: 1, a: 1}
      data:
        first:
          name: _TintColor
        second: {r: 0.31617647, g: 0.5755578, b: 1, a: 0.27058825}
      data:
        first:
          name: _CoreColor
        second: {r: 0.50735295, g: 0.6738337, b: 1, a: 0}
