%YAML 1.1
%TAG !u! tag:unity3d.com,2011:
--- !u!21 &2100000
Material:
  serializedVersion: 6
  m_ObjectHideFlags: 0
  m_PrefabParentObject: {fileID: 0}
  m_PrefabInternal: {fileID: 0}
  m_Name: CoreMobile
  m_Shader: {fileID: 4800000, guid: 4b1916e1e6f27054c896639558adfb4e, type: 3}
  m_ShaderKeywords: 
  m_LightmapFlags: 5
  m_CustomRenderQueue: -1
  stringTagMap: {}
  m_SavedProperties:
    serializedVersion: 2
    m_TexEnvs:
      data:
        first:
          name: _MainTex
        second:
          m_Texture: {fileID: 0}
          m_Scale: {x: 1, y: 1}
          m_Offset: {x: 0, y: 0}
      data:
        first:
          name: _BumpMap
        second:
          m_Texture: {fileID: 2800000, guid: fc7aa2f8825f9264baeddde6063bc8b6, type: 3}
          m_Scale: {x: 1, y: 1}
          m_Offset: {x: 0, y: 0}
      data:
        first:
          name: _NormalMap
        second:
          m_Texture: {fileID: 0}
          m_Scale: {x: 1, y: 1}
          m_Offset: {x: 0, y: 0}
      data:
        first:
          name: _Cube
        second:
          m_Texture: {fileID: 8900000, guid: e20fe7ddd5bd687438b2ea6aac51b0b4, type: 2}
          m_Scale: {x: 1, y: 1}
          m_Offset: {x: 0, y: 0}
      data:
        first:
          name: _HeightMap
        second:
          m_Texture: {fileID: 2800000, guid: fdb5ccff71f368143a526f3d7e8342d7, type: 3}
          m_Scale: {x: 1, y: 1}
          m_Offset: {x: 0, y: 0}
      data:
        first:
          name: _ReflectionMap
        second:
          m_Texture: {fileID: 2800000, guid: 5cc28bceff05e1944836e09f360fb6c3, type: 3}
          m_Scale: {x: 1, y: 1}
          m_Offset: {x: 0, y: 0}
      data:
        first:
          name: _GlossMap
        second:
          m_Texture: {fileID: 2800000, guid: 5cc28bceff05e1944836e09f360fb6c3, type: 3}
          m_Scale: {x: 1, y: 1}
          m_Offset: {x: 0, y: 0}
    m_Floats:
      data:
        first:
          name: _Cutoff
        second: 0.51785713
      data:
        first:
          name: _Shininess
        second: 0.48243016
      data:
        first:
          name: _BumpAmt
        second: 15
      data:
        first:
          name: _ReflectionStrength
        second: 20
      data:
        first:
          name: _Opacity
        second: 0.6785714
      data:
        first:
          name: _FPOW
        second: 2
      data:
        first:
          name: _R0
        second: -0.2
      data:
        first:
          name: _LightStr
        second: 0.41071427
      data:
        first:
          name: _Height
        second: 1
      data:
        first:
          name: _OffsetXHeightMap
        second: 0
      data:
        first:
          name: _OffsetYHeightMap
        second: 0
      data:
        first:
          name: _RefractiveStrength
        second: 1
      data:
        first:
          name: _OffsetHeightMap
        second: 1
      data:
        first:
          name: _CubeMapOpacity
        second: 0.14285715
      data:
        first:
          name: _RimPower
        second: 8
      data:
        first:
          name: _ColorIntensity
        second: 1
      data:
        first:
          name: _Amount
        second: 0.5
    m_Colors:
      data:
        first:
          name: _Color
        second: {r: 0.7102096, g: 1, b: 0, a: 1}
      data:
        first:
          name: _SpecColor
        second: {r: 1, g: 1, b: 1, a: 1}
      data:
        first:
          name: _ReflectColor
        second: {r: 0.1454909, g: 0.14565384, b: 0.16911763, a: 1}
      data:
        first:
          name: _RimColor
        second: {r: 0.6729022, g: 0.7286853, b: 0.9338235, a: 1}
