%YAML 1.1
%TAG !u! tag:unity3d.com,2011:
--- !u!21 &2100000
Material:
  serializedVersion: 6
  m_ObjectHideFlags: 0
  m_PrefabParentObject: {fileID: 0}
  m_PrefabInternal: {fileID: 0}
  m_Name: DropsBlotMobile
  m_Shader: {fileID: 4800000, guid: 2e55dfdd95859004784c039cd36cf8b4, type: 3}
  m_ShaderKeywords: 
  m_LightmapFlags: 5
  m_CustomRenderQueue: -1
  stringTagMap: {}
  m_SavedProperties:
    serializedVersion: 2
    m_TexEnvs:
      data:
        first:
          name: _MainTex
        second:
          m_Texture: {fileID: 2800000, guid: 9b2050c55ddcc63488665dc15147c97f, type: 3}
          m_Scale: {x: 0.1, y: 0.1}
          m_Offset: {x: 0, y: 0}
      data:
        first:
          name: _BumpMap
        second:
          m_Texture: {fileID: 2800000, guid: c6ade4c2fb3de764bbef1ae231d1d039, type: 3}
          m_Scale: {x: 0.1, y: 0.1}
          m_Offset: {x: 0, y: 0}
      data:
        first:
          name: _Cube
        second:
          m_Texture: {fileID: 8900000, guid: e2fc12be2e3e72f44a8a78d46d5e2559, type: 2}
          m_Scale: {x: 1, y: 1}
          m_Offset: {x: 0, y: 0}
      data:
        first:
          name: _CutOut
        second:
          m_Texture: {fileID: 2800000, guid: fdc6ad0a8bd1cd04592eddf8d475c170, type: 3}
          m_Scale: {x: 1, y: 1}
          m_Offset: {x: 0, y: 0}
      data:
        first:
          name: _BumpMapGlass
        second:
          m_Texture: {fileID: 0}
          m_Scale: {x: 1, y: 1}
          m_Offset: {x: 0, y: 0}
    m_Floats:
      data:
        first:
          name: _Cutoff
        second: 1
      data:
        first:
          name: _Shininess
        second: 1
      data:
        first:
          name: _InvFade
        second: 1
      data:
        first:
          name: _ColorStrength
        second: 1
      data:
        first:
          name: _BumpAmt
        second: 30
      data:
        first:
          name: _ReflectionStrength
        second: 6.0892854
      data:
        first:
          name: _Opacity
        second: 0.67857146
      data:
        first:
          name: _FPOW
        second: 2
      data:
        first:
          name: _R0
        second: -1
      data:
        first:
          name: _LightStr
        second: 0.071428575
    m_Colors:
      data:
        first:
          name: _Color
        second: {r: 0.7271988, g: 0.9117647, b: 0.27487022, a: 1}
      data:
        first:
          name: _SpecColor
        second: {r: 1, g: 1, b: 1, a: 1}
      data:
        first:
          name: _Emission
        second: {r: 0, g: 0, b: 0, a: 0}
      data:
        first:
          name: _ReflectColor
        second: {r: 0.49803922, g: 0.75686276, b: 0, a: 1}
      data:
        first:
          name: _TintColor
        second: {r: 0.5, g: 0.5, b: 0.5, a: 0.5}
