%YAML 1.1
%TAG !u! tag:unity3d.com,2011:
--- !u!21 &2100000
Material:
  serializedVersion: 6
  m_ObjectHideFlags: 0
  m_PrefabParentObject: {fileID: 0}
  m_PrefabInternal: {fileID: 0}
  m_Name: CraterMobile
  m_Shader: {fileID: 4800000, guid: 90f914c620c763a4cbf00c2e685d8ed3, type: 3}
  m_ShaderKeywords: 
  m_LightmapFlags: 5
  m_CustomRenderQueue: -1
  stringTagMap: {}
  m_SavedProperties:
    serializedVersion: 2
    m_TexEnvs:
      data:
        first:
          name: _MainTex
        second:
          m_Texture: {fileID: 2800000, guid: 6224ecbdf995ca040a3e221eb8904e2b, type: 3}
          m_Scale: {x: 1, y: 1}
          m_Offset: {x: 0, y: 0}
      data:
        first:
          name: _BumpMap
        second:
          m_Texture: {fileID: 2800000, guid: 1d2e91fbf7024b1469d5d7504a282071, type: 3}
          m_Scale: {x: 1, y: 1}
          m_Offset: {x: 0, y: 0}
      data:
        first:
          name: _CutOut
        second:
          m_Texture: {fileID: 2800000, guid: dffe218da7ceff345ba6a84ccc7bf03d, type: 3}
          m_Scale: {x: 1, y: 1}
          m_Offset: {x: 0, y: 0}
      data:
        first:
          name: _CutoutTex
        second:
          m_Texture: {fileID: 0}
          m_Scale: {x: 1, y: 1}
          m_Offset: {x: 0, y: 0}
      data:
        first:
          name: _FalloffTex
        second:
          m_Texture: {fileID: 2800000, guid: 1fc0be714123124428cbe974712a9190, type: 3}
          m_Scale: {x: 1, y: 1}
          m_Offset: {x: 0, y: 0}
      data:
        first:
          name: _Core
        second:
          m_Texture: {fileID: 2800000, guid: 614aa63e92ab88c4b80a27f7ee7c9346, type: 3}
          m_Scale: {x: 3, y: 3}
          m_Offset: {x: 0, y: 0}
      data:
        first:
          name: _Mask
        second:
          m_Texture: {fileID: 2800000, guid: dffe218da7ceff345ba6a84ccc7bf03d, type: 3}
          m_Scale: {x: 1, y: 1}
          m_Offset: {x: 0, y: 0}
    m_Floats:
      data:
        first:
          name: _Cutoff
        second: 0.5
      data:
        first:
          name: PixelSnap
        second: 0
      data:
        first:
          name: _InvFade
        second: 1
      data:
        first:
          name: _ColorStrength
        second: 2
      data:
        first:
          name: _BumpAmt
        second: 100
      data:
        first:
          name: _ColorStrR
        second: 0.93625
      data:
        first:
          name: _ColorStrG
        second: 1
      data:
        first:
          name: _ColorStrB
        second: 4
      data:
        first:
          name: _Range
        second: 2
    m_Colors:
      data:
        first:
          name: _Color
        second: {r: 1, g: 0.6492901, b: 0.33088237, a: 1}
      data:
        first:
          name: _TintColor
        second: {r: 1, g: 0.31034485, b: 0, a: 1}
      data:
        first:
          name: _TintColorR
        second: {r: 0.5, g: 0.5, b: 0.5, a: 1}
      data:
        first:
          name: _TintColorG
        second: {r: 0.5, g: 0.5, b: 0.5, a: 1}
      data:
        first:
          name: _TintColorB
        second: {r: 0.5, g: 0.5, b: 0.5, a: 1}
