%YAML 1.1
%TAG !u! tag:unity3d.com,2011:
--- !u!21 &2100000
Material:
  serializedVersion: 6
  m_ObjectHideFlags: 0
  m_PrefabParentObject: {fileID: 0}
  m_PrefabInternal: {fileID: 0}
  m_Name: Branch2
  m_Shader: {fileID: 4800000, guid: 7682ab5e936afcb469d7fef4d5adf6eb, type: 3}
  m_ShaderKeywords: 
  m_LightmapFlags: 5
  m_CustomRenderQueue: -1
  stringTagMap: {}
  m_SavedProperties:
    serializedVersion: 2
    m_TexEnvs:
      data:
        first:
          name: _MainTex
        second:
          m_Texture: {fileID: 2800000, guid: dd27607fe3bd52d4c84a5bd18e528fd5, type: 3}
          m_Scale: {x: 1, y: 1}
          m_Offset: {x: 1, y: 1}
      data:
        first:
          name: _BumpMap
        second:
          m_Texture: {fileID: 2800000, guid: 9e90cc0325814a84a88a0a81ccba5164, type: 3}
          m_Scale: {x: 0.125, y: 0.125}
          m_Offset: {x: 0.5, y: 0.5}
      data:
        first:
          name: _CutOut
        second:
          m_Texture: {fileID: 2800000, guid: 66de2778f2bb657469aee79ccd740705, type: 3}
          m_Scale: {x: 0.125, y: 0.125}
          m_Offset: {x: 0.5, y: 0.5}
    m_Floats:
      data:
        first:
          name: _InvFade
        second: 3
      data:
        first:
          name: _ColorStrength
        second: 0.3
      data:
        first:
          name: _BumpAmt
        second: 53.571426
      data:
        first:
          name: _TintStrength
        second: 1.4285715
      data:
        first:
          name: _CoreStrength
        second: 1.4285716
      data:
        first:
          name: _CutOutLightCore
        second: 0
    m_Colors:
      data:
        first:
          name: _Color
        second: {r: 1, g: 1, b: 1, a: 1}
      data:
        first:
          name: _TintColor
        second: {r: 0, g: 0.25517225, b: 1, a: 1}
      data:
        first:
          name: _CoreColor
        second: {r: 0.43382353, g: 0.48458403, b: 1, a: 1}
