%YAML 1.1
%TAG !u! tag:unity3d.com,2011:
--- !u!21 &2100000
Material:
  serializedVersion: 6
  m_ObjectHideFlags: 0
  m_PrefabParentObject: {fileID: 0}
  m_PrefabInternal: {fileID: 0}
  m_Name: Distortion3Mobile
  m_Shader: {fileID: 4800000, guid: 0806d638f118c844b9909f0a153b6bf7, type: 3}
  m_ShaderKeywords: 
  m_LightmapFlags: 5
  m_CustomRenderQueue: -1
  stringTagMap: {}
  m_SavedProperties:
    serializedVersion: 2
    m_TexEnvs:
      data:
        first:
          name: _MainTex
        second:
          m_Texture: {fileID: 2800000, guid: f9bb0fc00d645b74a9f69161d166cbc6, type: 3}
          m_Scale: {x: 1, y: 1}
          m_Offset: {x: 0, y: 0}
      data:
        first:
          name: _BumpMap
        second:
          m_Texture: {fileID: 2800000, guid: c8b3e5216f13f1248a0857a10afc8fad, type: 3}
          m_Scale: {x: 1, y: 1}
          m_Offset: {x: 0, y: 0}
      data:
        first:
          name: _CutOut
        second:
          m_Texture: {fileID: 2800000, guid: b667237b8dfe1ad4d83055bebe0b42e5, type: 3}
          m_Scale: {x: 1, y: 1}
          m_Offset: {x: 0, y: 0}
    m_Floats:
      data:
        first:
          name: _InvFade
        second: 5
      data:
        first:
          name: _ColorStrength
        second: 0.5
      data:
        first:
          name: _BumpAmt
        second: 50
    m_Colors:
      data:
        first:
          name: _Color
        second: {r: 1, g: 1, b: 1, a: 1}
      data:
        first:
          name: _TintColor
        second: {r: 1, g: 0.39567277, b: 0, a: 1}
      data:
        first:
          name: _TintColorB
        second: {r: 1, g: 0.5385396, b: 0.33088237, a: 1}
