%YAML 1.1
%TAG !u! tag:unity3d.com,2011:
--- !u!21 &2100000
Material:
  serializedVersion: 6
  m_ObjectHideFlags: 0
  m_PrefabParentObject: {fileID: 0}
  m_PrefabInternal: {fileID: 0}
  m_Name: WaveMobile
  m_Shader: {fileID: 4800000, guid: 49895ab10e5998b4db8eee81071536b6, type: 3}
  m_ShaderKeywords: 
  m_LightmapFlags: 5
  m_CustomRenderQueue: -1
  stringTagMap: {}
  m_SavedProperties:
    serializedVersion: 2
    m_TexEnvs:
      data:
        first:
          name: _MainTex
        second:
          m_Texture: {fileID: 2800000, guid: e2b94e3dcc181f142be8bb048e218012, type: 3}
          m_Scale: {x: 0.125, y: 0.25}
          m_Offset: {x: 0.125, y: 0.5}
      data:
        first:
          name: _FalloffTex
        second:
          m_Texture: {fileID: 2800000, guid: 1fc0be714123124428cbe974712a9190, type: 3}
          m_Scale: {x: 1, y: 1}
          m_Offset: {x: 0, y: 0}
      data:
        first:
          name: _ShadowTex
        second:
          m_Texture: {fileID: 2800000, guid: f285c8f837f3ecd46a843fb8ae3ed8c0, type: 3}
          m_Scale: {x: 1, y: 1}
          m_Offset: {x: 0, y: 0}
    m_Floats:
      data:
        first:
          name: _ColorStrength
        second: 1.5
      data:
        first:
          name: _Size
        second: 1
    m_Colors:
      data:
        first:
          name: _Color
        second: {r: 1, g: 1, b: 1, a: 1}
      data:
        first:
          name: _TintColor
        second: {r: 0.35686275, g: 0.31764707, b: 1, a: 1}
